<?xml version="1.0" encoding="UTF-8" standalone="no"?>
<!-- Created with Inkscape (http://www.inkscape.org/) -->

<svg
   width="224.41194mm"
   height="224.41194mm"
   viewBox="0 0 224.41195 224.41194"
   version="1.1"
   id="svg980"
   inkscape:version="1.1.2 (b8e25be833, 2022-02-05)"
   sodipodi:docname="quartodon-hex-sticker-combivapor.svg"
   inkscape:export-filename="C:\pC\git\R\quartodon\img\quartodon-hex-sticker-vapor.png"
   inkscape:export-xdpi="56.59"
   inkscape:export-ydpi="56.59"
   xmlns:inkscape="http://www.inkscape.org/namespaces/inkscape"
   xmlns:sodipodi="http://sodipodi.sourceforge.net/DTD/sodipodi-0.dtd"
   xmlns:xlink="http://www.w3.org/1999/xlink"
   xmlns="http://www.w3.org/2000/svg"
   xmlns:svg="http://www.w3.org/2000/svg">
  <sodipodi:namedview
     id="namedview982"
     pagecolor="#ffffff"
     bordercolor="#666666"
     borderopacity="1.0"
     inkscape:pageshadow="2"
     inkscape:pageopacity="0.0"
     inkscape:pagecheckerboard="0"
     inkscape:document-units="mm"
     showgrid="false"
     inkscape:snap-global="true"
     inkscape:snap-bbox="true"
     inkscape:snap-midpoints="true"
     inkscape:bbox-paths="true"
     inkscape:snap-bbox-edge-midpoints="true"
     inkscape:snap-bbox-midpoints="true"
     inkscape:object-paths="true"
     inkscape:snap-center="true"
     inkscape:snap-object-midpoints="true"
     inkscape:bbox-nodes="true"
     inkscape:snap-intersection-paths="true"
     inkscape:snap-smooth-nodes="true"
     inkscape:zoom="0.93685062"
     inkscape:cx="72.58361"
     inkscape:cy="442.4398"
     inkscape:window-width="1920"
     inkscape:window-height="1134"
     inkscape:window-x="-8"
     inkscape:window-y="-8"
     inkscape:window-maximized="1"
     inkscape:current-layer="layer5"
     fit-margin-top="0"
     fit-margin-left="0"
     fit-margin-right="0"
     fit-margin-bottom="0" />
  <defs
     id="defs977">
    <linearGradient
       id="Cyan"
       inkscape:swatch="solid">
      <stop
         style="stop-color:#00ffff;stop-opacity:1;"
         offset="0"
         id="stop966" />
    </linearGradient>
    <linearGradient
       id="Quarto_Blue"
       inkscape:swatch="solid">
      <stop
         style="stop-color:#75aadb;stop-opacity:1;"
         offset="0"
         id="stop955" />
    </linearGradient>
    <linearGradient
       id="Magenta"
       inkscape:swatch="solid">
      <stop
         style="stop-color:#ff00ff;stop-opacity:1;"
         offset="0"
         id="stop943" />
    </linearGradient>
    <linearGradient
       id="Mastodon_Purple"
       inkscape:swatch="solid">
      <stop
         style="stop-color:#563acc;stop-opacity:1;"
         offset="0"
         id="stop937" />
    </linearGradient>
    <linearGradient
       id="linearGradient50152"
       inkscape:swatch="gradient">
      <stop
         style="stop-color:#ff00ff;stop-opacity:1"
         offset="0"
         id="stop50148" />
      <stop
         style="stop-color:#00ffff;stop-opacity:1"
         offset="1"
         id="stop50150" />
    </linearGradient>
    <linearGradient
       inkscape:collect="always"
       xlink:href="#Magenta"
       id="linearGradient947"
       x1="117.00173"
       y1="152.19711"
       x2="191.58267"
       y2="152.19711"
       gradientUnits="userSpaceOnUse" />
    <linearGradient
       inkscape:collect="always"
       xlink:href="#Cyan"
       id="linearGradient959"
       x1="32.877567"
       y1="156.11159"
       x2="116.23833"
       y2="156.11159"
       gradientUnits="userSpaceOnUse" />
    <linearGradient
       inkscape:collect="always"
       xlink:href="#linearGradient50152"
       id="linearGradient1086"
       gradientUnits="userSpaceOnUse"
       x1="40.989159"
       y1="199.49242"
       x2="134.92212"
       y2="36.800201" />
    <linearGradient
       inkscape:collect="always"
       xlink:href="#linearGradient50152"
       id="linearGradient1903"
       gradientUnits="userSpaceOnUse"
       gradientTransform="matrix(0.3836218,0,0,0.3836218,-98.131776,-21.50682)"
       x1="613.68439"
       y1="355.24646"
       x2="470.27487"
       y2="195.76326" />
  </defs>
  <g
     inkscape:label="Background"
     inkscape:groupmode="layer"
     id="layer1"
     style="display:none"
     transform="translate(24.250887,-5.9407268)">
    <circle
       style="color:#000000;overflow:visible;opacity:1;fill:#e6e6e6;stroke:#552200;stroke-width:0.0761086;stroke-linecap:round;stroke-linejoin:round;stop-color:#000000"
       id="path1385"
       cx="87.698158"
       cy="135.79799"
       r="75.774696" />
    <rect
       style="color:#000000;overflow:visible;fill:#ffffff;stroke-width:1.21104;stroke-linecap:square;stop-color:#000000"
       id="rect1166"
       width="224.41194"
       height="224.41194"
       x="-24.250887"
       y="5.9407268" />
  </g>
  <g
     inkscape:groupmode="layer"
     id="layer11"
     inkscape:label="Hex background"
     transform="translate(14.89742,-0.15269366)"
     style="display:inline">
    <path
       inkscape:connector-curvature="0"
       id="path4879-4"
       d="M 87.953342,9.6826099 -5.9625388,63.905223 -5.9805759,172.37404 87.958893,226.6108 181.8889,172.36304 181.8909,63.91779 Z"
       style="color:#000000;clip-rule:nonzero;display:inline;overflow:visible;visibility:visible;isolation:auto;mix-blend-mode:normal;color-interpolation:sRGB;color-interpolation-filters:linearRGB;solid-color:#000000;solid-opacity:1;fill:#000000;fill-opacity:1;fill-rule:nonzero;stroke:none;stroke-width:3.04287;stroke-linecap:square;stroke-linejoin:miter;stroke-miterlimit:4;stroke-dasharray:none;stroke-dashoffset:0;stroke-opacity:1;color-rendering:auto;image-rendering:auto;shape-rendering:auto;text-rendering:auto;enable-background:accumulate"
       transform="translate(9.3534672,-5.7880332)" />
  </g>
  <g
     inkscape:groupmode="layer"
     id="layer4"
     inkscape:label="Package title">
    <text
       xml:space="preserve"
       style="font-style:normal;font-variant:normal;font-weight:normal;font-stretch:normal;font-size:31.6961px;line-height:1.25;font-family:'Bauhaus 93';-inkscape-font-specification:'Bauhaus 93, ';fill:#cccccc;fill-opacity:1;stroke:none;stroke-width:0.3962"
       x="112.50708"
       y="163.32245"
       id="text9996"><tspan
         sodipodi:role="line"
         id="tspan9994"
         style="font-style:normal;font-variant:normal;font-weight:900;font-stretch:normal;font-size:31.6961px;font-family:Nunito;-inkscape-font-specification:'Nunito Heavy';text-align:center;text-anchor:middle;fill:#cccccc;fill-opacity:1;stroke-width:0.3962"
         x="112.50708"
         y="163.32245">quartodon</tspan></text>
    <text
       xml:space="preserve"
       style="font-style:normal;font-variant:normal;font-weight:normal;font-stretch:normal;font-size:31.6961px;line-height:1.25;font-family:'Bauhaus 93';-inkscape-font-specification:'Bauhaus 93, ';fill:url(#linearGradient947);fill-opacity:1.0;stroke:none;stroke-width:0.3962"
       x="154.59331"
       y="163.32245"
       id="text28582"><tspan
         sodipodi:role="line"
         id="tspan28580"
         style="font-style:normal;font-variant:normal;font-weight:900;font-stretch:normal;font-size:31.6961px;font-family:Nunito;-inkscape-font-specification:'Nunito Heavy';text-align:center;text-anchor:middle;fill:url(#linearGradient947);fill-opacity:1.0;stroke-width:0.3962"
         x="154.59331"
         y="163.32245">odon</tspan></text>
    <text
       xml:space="preserve"
       style="font-style:normal;font-variant:normal;font-weight:normal;font-stretch:normal;font-size:31.6961px;line-height:1.25;font-family:'Bauhaus 93';-inkscape-font-specification:'Bauhaus 93, ';fill:url(#linearGradient959);fill-opacity:1.0;stroke:none;stroke-width:0.3962"
       x="74.019127"
       y="163.32245"
       id="text28586"><tspan
         sodipodi:role="line"
         id="tspan28584"
         style="font-style:normal;font-variant:normal;font-weight:900;font-stretch:normal;font-size:31.6961px;font-family:Nunito;-inkscape-font-specification:'Nunito Heavy';text-align:center;text-anchor:middle;fill:url(#linearGradient959);fill-opacity:1.0;stroke-width:0.3962"
         x="74.019127"
         y="163.32245">quart</tspan></text>
  </g>
  <g
     inkscape:groupmode="layer"
     id="layer2"
     inkscape:label="Quarto Logo" />
  <g
     inkscape:groupmode="layer"
     id="layer3"
     inkscape:label="Mastodon logo" />
  <g
     inkscape:groupmode="layer"
     id="layer5"
     inkscape:label="Combined logo">
    <path
       id="path1360"
       style="display:inline;fill:url(#linearGradient1903);fill-opacity:1;stroke-width:0.394336"
       d="m 109.24199,41.373647 c -10.664603,0.264709 -20.670788,1.555602 -26.699342,4.324434 0,0 -13.003059,5.817572 -13.003059,25.664541 0,0 -0.06379,5.862211 0.388519,12.741531 h 39.313882 z m 0,48.662248 H 70.443621 c 0.236621,2.119478 0.534247,4.208378 0.909062,6.136268 h 8.92e-4 c 1.254489,6.453787 11.235472,13.516877 22.698879,14.885727 5.032323,0.60046 10.000006,1.15769 15.189596,1.14796 z m 0,33.510385 c -7.10367,-0.22489 -12.909184,-2.05116 -12.909184,-2.05116 l -0.341578,7.52774 c 0,0 4.735612,2.52986 13.250762,3.45477 z m 6.72513,9.26371 c 4.974,-0.0404 10.78104,-0.68672 17.3233,-2.4183 17.04021,-4.51021 20.68007,-21.98636 21.40842,-40.355795 h -38.73172 v 21.858965 c 8.40501,-0.69551 14.58606,-2.20622 14.58606,-2.20622 0,0.99916 -0.0616,1.95103 -0.18483,2.84076 -1.12458,8.53671 -7.48971,10.30447 -14.40123,10.82031 z m 0,-48.705837 h 38.88135 c 0.0595,-4.640512 0.002,-8.995427 0.002,-12.741531 0,-19.846969 -13.00431,-25.664541 -13.00431,-25.664541 -5.87527,-2.698235 -15.52174,-3.99243 -25.87829,-4.301802 z m 15.71851,-24.023284 a 5.732723,5.732723 0 0 1 0.40905,0.01509 5.732723,5.732723 0 0 1 0.40655,0.04359 5.732723,5.732723 0 0 1 0.40319,0.07251 5.732723,5.732723 0 0 1 0.39648,0.101427 5.732723,5.732723 0 0 1 0.3881,0.128668 5.732723,5.732723 0 0 1 0.37846,0.15675 5.732723,5.732723 0 0 1 0.36547,0.18357 5.732723,5.732723 0 0 1 0.35206,0.208721 5.732723,5.732723 0 0 1 0.33655,0.233028 5.732723,5.732723 0 0 1 0.31852,0.257338 5.732723,5.732723 0 0 1 0.29967,0.27871 5.732723,5.732723 0 0 1 0.27872,0.299668 5.732723,5.732723 0 0 1 0.25691,0.318109 5.732723,5.732723 0 0 1 0.23303,0.33655 5.732723,5.732723 0 0 1 0.20914,0.351637 5.732723,5.732723 0 0 1 0.18273,0.366307 5.732723,5.732723 0 0 1 0.15675,0.377624 5.732723,5.732723 0 0 1 0.12951,0.388939 5.732723,5.732723 0 0 1 0.10101,0.396064 5.732723,5.732723 0 0 1 0.0729,0.40235 5.732723,5.732723 0 0 1 0.0431,0.406963 5.732723,5.732723 0 0 1 0.0151,0.409057 5.732723,5.732723 0 0 1 -0.11023,1.118619 5.732723,5.732723 0 0 1 -0.32649,1.075451 5.732723,5.732723 0 0 1 -0.52976,0.991208 5.732723,5.732723 0 0 1 -0.7125,0.868406 5.732723,5.732723 0 0 1 -0.86924,0.713335 5.732723,5.732723 0 0 1 -0.99121,0.529762 5.732723,5.732723 0 0 1 -1.07503,0.325654 5.732723,5.732723 0 0 1 -1.11862,0.110226 5.732723,5.732723 0 0 1 -1.1182,-0.110226 5.732723,5.732723 0 0 1 -1.07503,-0.325654 5.732723,5.732723 0 0 1 -0.99121,-0.529762 5.732723,5.732723 0 0 1 -0.86924,-0.713335 5.732723,5.732723 0 0 1 -0.7125,-0.868406 5.732723,5.732723 0 0 1 -0.52976,-0.991208 5.732723,5.732723 0 0 1 -0.32691,-1.075451 5.732723,5.732723 0 0 1 -0.10981,-1.118619 5.732723,5.732723 0 0 1 0.10981,-1.117783 5.732723,5.732723 0 0 1 0.32691,-1.075868 5.732723,5.732723 0 0 1 0.52976,-0.991209 5.732723,5.732723 0 0 1 0.7125,-0.868408 5.732723,5.732723 0 0 1 0.86924,-0.712914 5.732723,5.732723 0 0 1 0.99121,-0.530182 5.732723,5.732723 0 0 1 1.07503,-0.326073 5.732723,5.732723 0 0 1 1.1182,-0.110227 z" />
  </g>
  <g
     inkscape:groupmode="layer"
     id="layer10"
     inkscape:label="Hex"
     transform="translate(24.250887,-5.9407268)"
     style="display:inline">
    <path
       style="display:inline;isolation:isolate;fill:url(#linearGradient1086);fill-opacity:1.0;stroke:none;stroke-width:0.264;stroke-opacity:0.572549;stroke-miterlimit:4;stroke-dasharray:none"
       inkscape:connector-curvature="0"
       id="path1094-2"
       d="m 95.705465,225.87693 73.467545,-42.41326 15.9564,-9.2315 0.002,-18.41151 -0.002,-84.831434 0.002,-8.944958 L 87.957686,5.9407326 80.213,10.416469 5.8245996,53.366898 l -15.0355943,8.694381 -0.010247,17.368364 0.010247,85.874537 -0.0027,8.94499 97.1741007,56.1035 z M -1.6977054,169.64126 -1.6841572,66.375375 87.726617,14.753509 l 89.433153,51.634239 -7e-4,103.242962 v 0 l -89.424108,51.64481 z"
       class="cls-3" />
  </g>
</svg>
